%YAML 1.1
%TAG !u! tag:unity3d.com,2011:
--- !u!114 &11400000
MonoBehaviour:
  m_ObjectHideFlags: 0
  m_CorrespondingSourceObject: {fileID: 0}
  m_PrefabInstance: {fileID: 0}
  m_PrefabAsset: {fileID: 0}
  m_GameObject: {fileID: 0}
  m_Enabled: 1
  m_EditorHideFlags: 0
  m_Script: {fileID: 11500000, guid: 5cf958b457213184da98456b1ae0b580, type: 3}
  m_Name: Default Tilemap
  m_EditorClassIdentifier: 
  levelName: ToolsLevel
  map:
  - {fileID: 11400000, guid: 478127e56f03f4740bd6126594d61cd8, type: 2}
  - {fileID: 11400000, guid: a77bbecc1c078e94998d03c0e2d7ebc8, type: 2}
  - {fileID: 11400000, guid: a77bbecc1c078e94998d03c0e2d7ebc8, type: 2}
  - {fileID: 11400000, guid: a77bbecc1c078e94998d03c0e2d7ebc8, type: 2}
  - {fileID: 11400000, guid: a77bbecc1c078e94998d03c0e2d7ebc8, type: 2}
  - {fileID: 11400000, guid: a77bbecc1c078e94998d03c0e2d7ebc8, type: 2}
  - {fileID: 11400000, guid: a77bbecc1c078e94998d03c0e2d7ebc8, type: 2}
  - {fileID: 11400000, guid: a77bbecc1c078e94998d03c0e2d7ebc8, type: 2}
  - {fileID: 11400000, guid: a77bbecc1c078e94998d03c0e2d7ebc8, type: 2}
  - {fileID: 11400000, guid: 822f899798ba2f840b1c2bcbc695bda2, type: 2}
  - {fileID: 11400000, guid: b96e48747d3479d46bf5f801cb9ec72e, type: 2}
  - {fileID: 11400000, guid: 27c71c27d7c606c4cbf068043efe7bb8, type: 2}
  - {fileID: 11400000, guid: 27c71c27d7c606c4cbf068043efe7bb8, type: 2}
  - {fileID: 11400000, guid: 27c71c27d7c606c4cbf068043efe7bb8, type: 2}
  - {fileID: 11400000, guid: 27c71c27d7c606c4cbf068043efe7bb8, type: 2}
  - {fileID: 11400000, guid: 27c71c27d7c606c4cbf068043efe7bb8, type: 2}
  - {fileID: 11400000, guid: 27c71c27d7c606c4cbf068043efe7bb8, type: 2}
  - {fileID: 11400000, guid: 27c71c27d7c606c4cbf068043efe7bb8, type: 2}
  - {fileID: 11400000, guid: 27c71c27d7c606c4cbf068043efe7bb8, type: 2}
  - {fileID: 11400000, guid: 7fec196ef3dcada42abc0a53dafef632, type: 2}
  - {fileID: 11400000, guid: b96e48747d3479d46bf5f801cb9ec72e, type: 2}
  - {fileID: 11400000, guid: 27c71c27d7c606c4cbf068043efe7bb8, type: 2}
  - {fileID: 11400000, guid: 27c71c27d7c606c4cbf068043efe7bb8, type: 2}
  - {fileID: 11400000, guid: 27c71c27d7c606c4cbf068043efe7bb8, type: 2}
  - {fileID: 11400000, guid: 27c71c27d7c606c4cbf068043efe7bb8, type: 2}
  - {fileID: 11400000, guid: 86f20c90534a3f943a19e1ee9be74de5, type: 2}
  - {fileID: 11400000, guid: 86f20c90534a3f943a19e1ee9be74de5, type: 2}
  - {fileID: 11400000, guid: fb4817b2522be6a4e9944d8e931d64b8, type: 2}
  - {fileID: 11400000, guid: 27c71c27d7c606c4cbf068043efe7bb8, type: 2}
  - {fileID: 11400000, guid: 7fec196ef3dcada42abc0a53dafef632, type: 2}
  - {fileID: 11400000, guid: b96e48747d3479d46bf5f801cb9ec72e, type: 2}
  - {fileID: 11400000, guid: 27c71c27d7c606c4cbf068043efe7bb8, type: 2}
  - {fileID: 11400000, guid: a68ed951410fc3545850a9033a5145b5, type: 2}
  - {fileID: 11400000, guid: 76e5e0fd0b29a3b4eaef5a64357997ed, type: 2}
  - {fileID: 11400000, guid: 27c71c27d7c606c4cbf068043efe7bb8, type: 2}
  - {fileID: 11400000, guid: 27c71c27d7c606c4cbf068043efe7bb8, type: 2}
  - {fileID: 11400000, guid: 27c71c27d7c606c4cbf068043efe7bb8, type: 2}
  - {fileID: 11400000, guid: d721738488a6fe04eb20ccad66ea385b, type: 2}
  - {fileID: 11400000, guid: 27c71c27d7c606c4cbf068043efe7bb8, type: 2}
  - {fileID: 11400000, guid: 7fec196ef3dcada42abc0a53dafef632, type: 2}
  - {fileID: 11400000, guid: b96e48747d3479d46bf5f801cb9ec72e, type: 2}
  - {fileID: 11400000, guid: 27c71c27d7c606c4cbf068043efe7bb8, type: 2}
  - {fileID: 11400000, guid: 27c71c27d7c606c4cbf068043efe7bb8, type: 2}
  - {fileID: 11400000, guid: 27c71c27d7c606c4cbf068043efe7bb8, type: 2}
  - {fileID: 11400000, guid: 27c71c27d7c606c4cbf068043efe7bb8, type: 2}
  - {fileID: 11400000, guid: 27c71c27d7c606c4cbf068043efe7bb8, type: 2}
  - {fileID: 11400000, guid: 27c71c27d7c606c4cbf068043efe7bb8, type: 2}
  - {fileID: 11400000, guid: 27c71c27d7c606c4cbf068043efe7bb8, type: 2}
  - {fileID: 11400000, guid: 27c71c27d7c606c4cbf068043efe7bb8, type: 2}
  - {fileID: 11400000, guid: 7fec196ef3dcada42abc0a53dafef632, type: 2}
  - {fileID: 11400000, guid: b96e48747d3479d46bf5f801cb9ec72e, type: 2}
  - {fileID: 11400000, guid: 27c71c27d7c606c4cbf068043efe7bb8, type: 2}
  - {fileID: 11400000, guid: 27c71c27d7c606c4cbf068043efe7bb8, type: 2}
  - {fileID: 11400000, guid: 27c71c27d7c606c4cbf068043efe7bb8, type: 2}
  - {fileID: 11400000, guid: 27c71c27d7c606c4cbf068043efe7bb8, type: 2}
  - {fileID: 11400000, guid: 27c71c27d7c606c4cbf068043efe7bb8, type: 2}
  - {fileID: 11400000, guid: 27c71c27d7c606c4cbf068043efe7bb8, type: 2}
  - {fileID: 11400000, guid: 27c71c27d7c606c4cbf068043efe7bb8, type: 2}
  - {fileID: 11400000, guid: 27c71c27d7c606c4cbf068043efe7bb8, type: 2}
  - {fileID: 11400000, guid: 7fec196ef3dcada42abc0a53dafef632, type: 2}
  - {fileID: 11400000, guid: b96e48747d3479d46bf5f801cb9ec72e, type: 2}
  - {fileID: 11400000, guid: 27c71c27d7c606c4cbf068043efe7bb8, type: 2}
  - {fileID: 11400000, guid: 1be0d87ef2e68a64ba6981789c1e67c8, type: 2}
  - {fileID: 11400000, guid: 27c71c27d7c606c4cbf068043efe7bb8, type: 2}
  - {fileID: 11400000, guid: 27c71c27d7c606c4cbf068043efe7bb8, type: 2}
  - {fileID: 11400000, guid: 27c71c27d7c606c4cbf068043efe7bb8, type: 2}
  - {fileID: 11400000, guid: 27c71c27d7c606c4cbf068043efe7bb8, type: 2}
  - {fileID: 11400000, guid: 27c71c27d7c606c4cbf068043efe7bb8, type: 2}
  - {fileID: 11400000, guid: 27c71c27d7c606c4cbf068043efe7bb8, type: 2}
  - {fileID: 11400000, guid: 7fec196ef3dcada42abc0a53dafef632, type: 2}
  - {fileID: 11400000, guid: b96e48747d3479d46bf5f801cb9ec72e, type: 2}
  - {fileID: 11400000, guid: 27c71c27d7c606c4cbf068043efe7bb8, type: 2}
  - {fileID: 11400000, guid: 07cdadde7f6352348891aa70769980f9, type: 2}
  - {fileID: 11400000, guid: 27c71c27d7c606c4cbf068043efe7bb8, type: 2}
  - {fileID: 11400000, guid: 27c71c27d7c606c4cbf068043efe7bb8, type: 2}
  - {fileID: 11400000, guid: 27c71c27d7c606c4cbf068043efe7bb8, type: 2}
  - {fileID: 11400000, guid: 27c71c27d7c606c4cbf068043efe7bb8, type: 2}
  - {fileID: 11400000, guid: 27c71c27d7c606c4cbf068043efe7bb8, type: 2}
  - {fileID: 11400000, guid: 27c71c27d7c606c4cbf068043efe7bb8, type: 2}
  - {fileID: 11400000, guid: 7fec196ef3dcada42abc0a53dafef632, type: 2}
  - {fileID: 11400000, guid: b96e48747d3479d46bf5f801cb9ec72e, type: 2}
  - {fileID: 11400000, guid: 27c71c27d7c606c4cbf068043efe7bb8, type: 2}
  - {fileID: 11400000, guid: 27c71c27d7c606c4cbf068043efe7bb8, type: 2}
  - {fileID: 11400000, guid: 27c71c27d7c606c4cbf068043efe7bb8, type: 2}
  - {fileID: 11400000, guid: 27c71c27d7c606c4cbf068043efe7bb8, type: 2}
  - {fileID: 11400000, guid: 27c71c27d7c606c4cbf068043efe7bb8, type: 2}
  - {fileID: 11400000, guid: 27c71c27d7c606c4cbf068043efe7bb8, type: 2}
  - {fileID: 11400000, guid: 27c71c27d7c606c4cbf068043efe7bb8, type: 2}
  - {fileID: 11400000, guid: 27c71c27d7c606c4cbf068043efe7bb8, type: 2}
  - {fileID: 11400000, guid: 7fec196ef3dcada42abc0a53dafef632, type: 2}
  - {fileID: 11400000, guid: f3c10c550bde18c47bc0c3c73c71a61b, type: 2}
  - {fileID: 11400000, guid: bc09f16c7f21f134fa8e3bb805487a64, type: 2}
  - {fileID: 11400000, guid: bc09f16c7f21f134fa8e3bb805487a64, type: 2}
  - {fileID: 11400000, guid: bc09f16c7f21f134fa8e3bb805487a64, type: 2}
  - {fileID: 11400000, guid: bc09f16c7f21f134fa8e3bb805487a64, type: 2}
  - {fileID: 11400000, guid: bc09f16c7f21f134fa8e3bb805487a64, type: 2}
  - {fileID: 11400000, guid: bc09f16c7f21f134fa8e3bb805487a64, type: 2}
  - {fileID: 11400000, guid: bc09f16c7f21f134fa8e3bb805487a64, type: 2}
  - {fileID: 11400000, guid: bc09f16c7f21f134fa8e3bb805487a64, type: 2}
  - {fileID: 11400000, guid: 564cf1b609c72f04993f51dacea6c7d2, type: 2}
