%YAML 1.1
%TAG !u! tag:unity3d.com,2011:
--- !u!114 &11400000
MonoBehaviour:
  m_ObjectHideFlags: 0
  m_CorrespondingSourceObject: {fileID: 0}
  m_PrefabInstance: {fileID: 0}
  m_PrefabAsset: {fileID: 0}
  m_GameObject: {fileID: 0}
  m_Enabled: 1
  m_EditorHideFlags: 0
  m_Script: {fileID: 11500000, guid: e4ca26280b846b745bb2bd74dd3d85ab, type: 3}
  m_Name: ExitDoorSprite
  m_EditorClassIdentifier: 
  Texture: {fileID: 21300000, guid: eb4bd1355ad1ac94fae1f760a25e1db9, type: 3}
  scale: {x: 0.25, y: 0.25}
  originCenter: 0
  centerOfTile: 0
  useTileCoordinate: 1
  color: {r: 1, g: 1, b: 1, a: 0}
