%YAML 1.1
%TAG !u! tag:unity3d.com,2011:
--- !u!114 &11400000
MonoBehaviour:
  m_ObjectHideFlags: 0
  m_CorrespondingSourceObject: {fileID: 0}
  m_PrefabInstance: {fileID: 0}
  m_PrefabAsset: {fileID: 0}
  m_GameObject: {fileID: 0}
  m_Enabled: 1
  m_EditorHideFlags: 0
  m_Script: {fileID: 11500000, guid: 43f4feccabe30134681d2851a5dbaae7, type: 3}
  m_Name: Tile77
  m_EditorClassIdentifier: 
  ID: 77
  Texture: {fileID: 21300000, guid: 098e9689820004c4d875a10a4ca0e0a4, type: 3}
  WallTop: 0
  WallBottom: 0
  WallRight: 1
  WallLeft: 0
