%YAML 1.1
%TAG !u! tag:unity3d.com,2011:
--- !u!114 &11400000
MonoBehaviour:
  m_ObjectHideFlags: 0
  m_CorrespondingSourceObject: {fileID: 0}
  m_PrefabInstance: {fileID: 0}
  m_PrefabAsset: {fileID: 0}
  m_GameObject: {fileID: 0}
  m_Enabled: 1
  m_EditorHideFlags: 0
  m_Script: {fileID: 11500000, guid: 43f4feccabe30134681d2851a5dbaae7, type: 3}
  m_Name: Tile64
  m_EditorClassIdentifier: 
  ID: 64
  Texture: {fileID: 21300000, guid: 74bcf915c0f406a45a1eb30d2398aa20, type: 3}
  WallTop: 0
  WallBottom: 0
  WallRight: 0
  WallLeft: 0
