%YAML 1.1
%TAG !u! tag:unity3d.com,2011:
--- !u!114 &11400000
MonoBehaviour:
  m_ObjectHideFlags: 0
  m_CorrespondingSourceObject: {fileID: 0}
  m_PrefabInstance: {fileID: 0}
  m_PrefabAsset: {fileID: 0}
  m_GameObject: {fileID: 0}
  m_Enabled: 1
  m_EditorHideFlags: 0
  m_Script: {fileID: 11500000, guid: 43f4feccabe30134681d2851a5dbaae7, type: 3}
  m_Name: Tile53
  m_EditorClassIdentifier: 
  ID: 53
  Texture: {fileID: 21300000, guid: 1b9f731c18f17de479c1a36eae792c5e, type: 3}
  WallTop: 0
  WallBottom: 1
  WallRight: 0
  WallLeft: 1
