%YAML 1.1
%TAG !u! tag:unity3d.com,2011:
--- !u!114 &11400000
MonoBehaviour:
  m_ObjectHideFlags: 0
  m_CorrespondingSourceObject: {fileID: 0}
  m_PrefabInstance: {fileID: 0}
  m_PrefabAsset: {fileID: 0}
  m_GameObject: {fileID: 0}
  m_Enabled: 1
  m_EditorHideFlags: 0
  m_Script: {fileID: 11500000, guid: 43f4feccabe30134681d2851a5dbaae7, type: 3}
  m_Name: Tile66
  m_EditorClassIdentifier: 
  ID: 66
  Texture: {fileID: 21300000, guid: 1b9757c3160441c4a9492ac1fa2876b3, type: 3}
  WallTop: 1
  WallBottom: 0
  WallRight: 1
  WallLeft: 1
